{
  "$schema": "https://schema.management.azure.com/schemas/2015-01-01/deploymentTemplate.json#",
  "contentVersion": "1.0.0.0",
  "parameters": {
    "logicAppName": {
      "type": "string",
      "minLength": 1,
      "maxLength": 80,
      "defaultValue": "JasonLogicApp",
      "metadata": {
        "description": "Name of the Logic App."
      }
    },
    "logicAppLocation": {
      "type": "string",
      "defaultValue": "[resourceGroup().location]",
      "allowedValues": [
        "[resourceGroup().location]",
        "eastasia",
        "southeastasia",
        "centralus",
        "eastus",
        "eastus2",
        "westus",
        "northcentralus",
        "southcentralus",
        "northeurope",
        "westeurope",
        "japanwest",
        "japaneast",
        "brazilsouth",
        "australiaeast",
        "australiasoutheast",
        "southindia",
        "centralindia",
        "westindia",
        "canadacentral",
        "canadaeast",
        "uksouth",
        "ukwest",
        "westcentralus",
        "westus2"
      ],
      "metadata": {
        "description": "Location of the Logic App."
      }
    },
    "office365_1_Connection_Name": {
      "type": "string",
      "defaultValue": "office365"
    },
    "office365_1_Connection_DisplayName": {
      "type": "string",
      "defaultValue": "Jason.Worlin@landmark.co.uk"
    },
    "rss_1_Connection_Name": {
      "type": "string",
      "defaultValue": "rss"
    },
    "rss_1_Connection_DisplayName": {
      "type": "string",
      "defaultValue": "RSS"
    },
    "azurequeues_1_Connection_Name": {
      "type": "string",
      "defaultValue": "azurequeues"
    },
    "azurequeues_1_Connection_DisplayName": {
      "type": "string",
      "defaultValue": "logicappmsgcon"
    },
    "azurequeues_1_storageaccount": {
      "type": "string",
      "metadata": {
        "description": "The name of your storage account"
      },
      "defaultValue": "jwlogicapp1storage"
    },
    "azurequeues_1_sharedkey": {
      "type": "securestring",
      "defaultValue": "dukmtB1UxyEEhbSE/DHVsvVvLlfuTTX9xHGVTPd1J2foaNzFKzZmE4W9TeFllulcrX2rdujVtwf8ZzY+RXFFEQ==",
      "metadata": {
        "description": "The shared storage key of your storage account"
      }
    }
  },
  "variables": {},
  "resources": [
    {
      "name": "[parameters('logicAppName')]",
      "type": "Microsoft.Logic/workflows",
      "location": "[parameters('logicAppLocation')]",
      "tags": {
        "displayName": "LogicApp"
      },
      "apiVersion": "2016-06-01",
      "properties": {
        "definition": {
          "$schema": "https://schema.management.azure.com/providers/Microsoft.Logic/schemas/2016-06-01/workflowdefinition.json#",
          "actions": {
            "Get_messages": {
              "type": "ApiConnection",
              "inputs": {
                "host": {
                  "connection": {
                    "name": "@parameters('$connections')['azurequeues']['connectionId']"
                  }
                },
                "method": "get",
                "path": "/@{encodeURIComponent('messageq')}/messages"
              },
              "runAfter": {}
            },
            "HTTP": {
              "type": "Http",
              "inputs": {
                "method": "POST",
                "uri": "https://jwlogicappfunc.azurewebsites.net/api/HttpTrigger1?code=18QY9AbD/9CWusYBXOg86XW7d2TsoXB7r8lBpo8UdzfaZ0EJiCunGQ==",
                "body": "@body('Get_messages')"
              },
              "runAfter": {
                "Get_messages": [
                  "Succeeded"
                ]
              }
            },
            "For_each": {
              "type": "Foreach",
              "foreach": "@body('Get_messages')?['QueueMessagesList']?['QueueMessage']",
              "actions": {
                "Delete_message": {
                  "type": "ApiConnection",
                  "inputs": {
                    "host": {
                      "connection": {
                        "name": "@parameters('$connections')['azurequeues']['connectionId']"
                      }
                    },
                    "method": "delete",
                    "path": "/@{encodeURIComponent('messageq')}/messages/@{encodeURIComponent(items('For_each')?['MessageId'])}",
                    "queries": {
                      "popreceipt": "null"
                    }
                  },
                  "runAfter": {}
                }
              },
              "runAfter": {
                "HTTP": [
                  "Succeeded"
                ]
              }
            }
          },
          "parameters": {
            "$connections": {
              "defaultValue": {},
              "type": "Object"
            }
          },
          "triggers": {
            "When_there_are_messages_in_a_queue": {
              "type": "ApiConnection",
              "inputs": {
                "host": {
                  "connection": {
                    "name": "@parameters('$connections')['azurequeues']['connectionId']"
                  }
                },
                "method": "get",
                "path": "/@{encodeURIComponent('messageq')}/message_trigger"
              },
              "recurrence": {
                "frequency": "Second",
                "interval": 10
              },
              "splitOn": "@triggerBody()?['QueueMessagesList']?['QueueMessage']"
            }
          },
          "contentVersion": "1.0.0.0",
          "outputs": {}
        },
        "parameters": {
          "$connections": {
            "value": {
              "azurequeues": {
                "id": "[concat(subscription().id, '/providers/Microsoft.Web/locations/', parameters('logicAppLocation'), '/managedApis/', 'azurequeues')]",
                "connectionId": "[resourceId('Microsoft.Web/connections', parameters('azurequeues_1_Connection_Name'))]",
                "connectionName": "[parameters('azurequeues_1_Connection_Name')]"
              }
            }
          }
        }
      },
      "dependsOn": [
        "[resourceId('Microsoft.Web/connections', parameters('azurequeues_1_Connection_Name'))]"
      ]
    },
    {
      "type": "MICROSOFT.WEB/CONNECTIONS",
      "apiVersion": "2016-06-01",
      "name": "[parameters('office365_1_Connection_Name')]",
      "location": "[parameters('logicAppLocation')]",
      "properties": {
        "api": {
          "id": "[concat(subscription().id, '/providers/Microsoft.Web/locations/', parameters('logicAppLocation'), '/managedApis/', 'office365')]"
        },
        "displayName": "[parameters('office365_1_Connection_DisplayName')]"
      }
    },
    {
      "type": "MICROSOFT.WEB/CONNECTIONS",
      "apiVersion": "2016-06-01",
      "name": "[parameters('rss_1_Connection_Name')]",
      "location": "[parameters('logicAppLocation')]",
      "properties": {
        "api": {
          "id": "[concat(subscription().id, '/providers/Microsoft.Web/locations/', parameters('logicAppLocation'), '/managedApis/', 'rss')]"
        },
        "displayName": "[parameters('rss_1_Connection_DisplayName')]"
      }
    },
    {
      "type": "MICROSOFT.WEB/CONNECTIONS",
      "apiVersion": "2016-06-01",
      "name": "[parameters('azurequeues_1_Connection_Name')]",
      "location": "[parameters('logicAppLocation')]",
      "properties": {
        "api": {
          "id": "[concat(subscription().id, '/providers/Microsoft.Web/locations/', parameters('logicAppLocation'), '/managedApis/', 'azurequeues')]"
        },
        "displayName": "[parameters('azurequeues_1_Connection_DisplayName')]",
        "parameterValues": {
          "storageaccount": "[parameters('azurequeues_1_storageaccount')]",
          "sharedkey": "[parameters('azurequeues_1_sharedkey')]"
        }
      }
    }
  ],
  "outputs": {}
}